<svg width="48" height="19" viewBox="0 0 48 19" fill="none" xmlns="http://www.w3.org/2000/svg">
<path d="M8.43359 3.64453C7.06641 3.64453 6.00781 4.16016 5.25781 5.19141C4.50781 6.21484 4.13281 7.64453 4.13281 9.48047C4.13281 13.3008 5.56641 15.2109 8.43359 15.2109C9.63672 15.2109 11.0938 14.9102 12.8047 14.3086V17.3555C11.3984 17.9414 9.82812 18.2344 8.09375 18.2344C5.60156 18.2344 3.69531 17.4805 2.375 15.9727C1.05469 14.457 0.394531 12.2852 0.394531 9.45703C0.394531 7.67578 0.71875 6.11719 1.36719 4.78125C2.01562 3.4375 2.94531 2.41016 4.15625 1.69922C5.375 0.980469 6.80078 0.621094 8.43359 0.621094C10.0977 0.621094 11.7695 1.02344 13.4492 1.82812L12.2773 4.78125C11.6367 4.47656 10.9922 4.21094 10.3438 3.98438C9.69531 3.75781 9.05859 3.64453 8.43359 3.64453ZM20.0938 8.92969H21.2891C22.4062 8.92969 23.2422 8.71094 23.7969 8.27344C24.3516 7.82812 24.6289 7.18359 24.6289 6.33984C24.6289 5.48828 24.3945 4.85938 23.9258 4.45312C23.4648 4.04688 22.7383 3.84375 21.7461 3.84375H20.0938V8.92969ZM28.2969 6.21094C28.2969 8.05469 27.7188 9.46484 26.5625 10.4414C25.4141 11.418 23.7773 11.9062 21.6523 11.9062H20.0938V18H16.4609V0.867188H21.9336C24.0117 0.867188 25.5898 1.31641 26.668 2.21484C27.7539 3.10547 28.2969 4.4375 28.2969 6.21094ZM47.082 9.41016C47.082 12.2461 46.3789 14.4258 44.9727 15.9492C43.5664 17.4727 41.5508 18.2344 38.9258 18.2344C36.3008 18.2344 34.2852 17.4727 32.8789 15.9492C31.4727 14.4258 30.7695 12.2383 30.7695 9.38672C30.7695 6.53516 31.4727 4.35938 32.8789 2.85938C34.293 1.35156 36.3164 0.597656 38.9492 0.597656C41.582 0.597656 43.5938 1.35547 44.9844 2.87109C46.3828 4.38672 47.082 6.56641 47.082 9.41016ZM34.5781 9.41016C34.5781 11.3242 34.9414 12.7656 35.668 13.7344C36.3945 14.7031 37.4805 15.1875 38.9258 15.1875C41.8242 15.1875 43.2734 13.2617 43.2734 9.41016C43.2734 5.55078 41.832 3.62109 38.9492 3.62109C37.5039 3.62109 36.4141 4.10938 35.6797 5.08594C34.9453 6.05469 34.5781 7.49609 34.5781 9.41016Z" fill="#969697"/>
</svg>
